[
    { "lat": "52.2196114", "lon": "21.0170634", "name": "Quê Hương" },
    { "lat": "52.2195197", "lon": "21.0172772", "name": "Izumi Sushi" },
    { "lat": "52.2195215", "lon": "21.0311284", "name": "Qchnia Artystyczna" },
    { "lat": "52.2195942", "lon": "11.2412713", "name": "Gasthof zur Post" },
    { "lat": "52.2196600", "lon": "22.2347600", "name": "Zajazd Chodowiak" },
    { "lat": "52.2195832", "lon": "21.0172071", "name": "tuk tuk" },
    { "lat": "52.2196228", "lon": "21.0194242", "name": "Sabich" },
    { "lat": "52.2196035", "lon": "20.9781614", "name": "Pachnący Gar" }
]
